…
```
## filter(): dplyr, stats
## lag():    dplyr, stats
```

```r
library(nycflights13)
filter(flights, arr_delay >= 120)
```

```
## # A tibble: 10,200 × 19
##     year month   day dep_time sched_dep_time dep_delay arr_time
##    <int> <int> <int>    <int>          <int>     <dbl>    <int>
## 1   2013     1     1      811            630       101     1047
## 2   2013     1     1      848           1835       853     1001
## 3   2013     1     1      957            733       144     1056
## 4   2013     1     1     1114            900       134     1447
## 5   2013     1     1     1505           1310       115     1638
## 6   2013     1     1     1525           1340       105     1831
## 7   2013     1     1     1549           1445        64     1912
## 8   2013     1     1     1558           1359       119     1718
## 9   2013     1     1     1732           1630        62     2028
## 10  2013     1     1     1803           1620       103     2008
## # ... with 10,190 more rows, and 12 more variables: sched_arr_time <int>,
## #   arr_delay <dbl>, carrier <chr>, flight <int>, tailnum <chr>,
## #   origin <chr>, dest <chr>, air_time <dbl>, distance <dbl>, hour <dbl>,
## #   minute <dbl>, time_hour <dttm>
```

1.2 Flew to Houston

```r
filter(flights, dest == 'IAH' | dest == 'HOU')
```

```
## # A tibble: 9,313 × 19
##     year month   day dep_time sched_dep_time dep_delay arr_time
##    <int> <int> <int>    <int>          <int>     <dbl>    <int>
## 1   2013     1     1      517            515         2      830
## 2   2013     1     1      533            529         4      850
## 3   2013     1     1      623            627        -4      933
## 4   2013     1     1      728            732        -4     1041
## 5   2013     1     1      739            739         0     1104
## 6   2013     1     1      908            908         0     1228
## 7   2013     1     1     1028           1026         2     1350
## 8   2013     1     1     1044           1045        -1     1352
## 9   2013     1     1     1114            900       134     1447
## 10  2013     1     1     1205           1200         5     1503
## # ... with 9,303 more rows, and 12 more variables: sched_arr_time <int>,
## #   arr_delay <dbl>, carrier <chr>, flight <int>, tailnum <chr>,
## #   origin <chr>, dest <chr>, air_time <dbl>, distance <dbl>, hour <dbl>,
## #   minute <dbl>, time_hour <dttm>
```

1.3 Were operated by United, American, or Delta

```r
filter(flights, carrier == 'UA' | carrier == 'AA'| carrier == 'DL')
```

```
## # A tibble: 139,504 × 19
##     year month   day dep_time sched_dep_time dep_delay arr_time
##    <int> <int> <int>    <int>          <int>     <dbl>    <int>
## 1   2013     1     1      517            515         2      830
## 2   2013     1     1      533            529         4      850
## 3   2013     1     1      542            540         2      923
## 4   2013     1     1      554            600        -6      812
## 5   2013     1     1      554            558        -4      740
## 6   2013     1     1      558            600        -2      753
## 7   2013     1     1      558            600        -2      924
## 8   2013     1     1      558            600        -2      923
## 9   2013     1     1      559            600        -1      941
## 10  2013     1     1      559            600        -1      854
## # ... with 139,494 more rows, and 12 more variables: sched_arr_time <int>,
## #   arr_delay <dbl>, carrier <chr>, flight <int>, tailnum <chr>,
## #   origin <chr>, dest <chr>, air_time <dbl>, distance <dbl>, hour <dbl>,
## #   minute <dbl>, time_hour <dttm>
```

1.4 Departed in summer (July, August, and September)

```r
filter(flights, month %in% c(7 ,8 ,9))
```

```
## # A tibble: 86,326 × 19
##     year month   day dep_time sched_dep_time dep_delay arr_time
##    <int> <int> <int>    <int>          <int>     <dbl>    <int>
## 1   2013     7     1        1           2029       212      236
## 2   2013     7     1        2           2359         3      344
## 3   2013     7     1       29           2245       104      151
## 4   2013     7     1       43           2130       193      322
## 5   2013     7     1       44           2150       174      300
## 6   2013     7     1       46           2051       235      304
## 7   2013     7     1       48           2001       287      308
## 8   2013     7     1       58           2155       183      335
## 9   2013     7     1      100           2146       194      327
## 10  2013     7     1      100           2245       135      337
## # ... with 86,316 more rows, and 12 more variables: sched_arr_time <int>,
## #   arr_delay <dbl>, carrier <chr>, flight <int>, tailnum <chr>,
## #   origin <chr>, dest <chr>, air_time <dbl>, distance <dbl>, hour <dbl>,
## #   minute <dbl>, time_hour <dttm>
```
…
1.6 Were delayed by at least an hour, but made up over 30 minutes in flight

```r
filter(flights, arr_delay <= 30, dep_delay >= 60)
```

```
## # A tibble: 239 × 19
##     year month   day dep_time sched_dep_time dep_delay arr_time
##    <int> <int> <int>    <int>          <int>     <dbl>    <int>
## 1   2013     1     3     1850           1745        65     2148
## 2   2013     1     3     1950           1845        65     2228
## 3   2013     1     3     2015           1915        60     2135
## 4   2013     1     6     1019            900        79     1558
## 5   2013     1     7     1543           1430        73     1758
## 6   2013     1    11     1020            920        60     1311
## 7   2013     1    12     1706           1600        66     1949
## 8   2013     1    12     1953           1845        68     2154
## 9   2013     1    19     1456           1355        61     1636
## 10  2013     1    21     1531           1430        61     1843
## # ... with 229 more rows, and 12 more variables: sched_arr_time <int>,
## #   arr_delay <dbl>, carrier <chr>, flight <int>, tailnum <chr>,
## #   origin <chr>, dest <chr>, air_time <dbl>, distance <dbl>, hour <dbl>,
## #   minute <dbl>, time_hour <dttm>
```

1.6 Departed between midnight and 6am (inclusive)

```r
filter(flights, dep_time <=600 | dep_time == 2400)
```

```
## # A tibble: 9,373 × 19
##     year month   day dep_time sched_dep_time dep_delay arr_time
##    <int> <int> <int>    <int>          <int>     <dbl>    <int>
## 1   2013     1     1      517            515         2      830
## 2   2013     1     1      533            529         4      850
## 3   2013     1     1      542            540         2      923
## 4   2013     1     1      544            545        -1     1004
## 5   2013     1     1      554            600        -6      812
## 6   2013     1     1      554            558        -4      740
## 7   2013     1     1      555            600        -5      913
## 8   2013     1     1      557            600        -3      709
## 9   2013     1     1      557            600        -3      838
## 10  2013     1     1      558            600        -2      753
## # ... with 9,363 more rows, and 12 more variables: sched_arr_time <int>,
## #   arr_delay <dbl>, carrier <chr>, flight <int>, tailnum <chr>,
## #   origin <chr>, dest <chr>, air_time <dbl>, distance <dbl>, hour <dbl>,
## #   minute <dbl>, time_hour <dttm>
```
…
With NA | TRUE, since the | operator returns TRUE if either of the terms are true, the whole expression returns true because the right half returns true. This is easier to see in an expression like NA | 5<10 (since 5 is indeed less than 10).  

For the next example, we know that & returns TRUE when both terms are true. So, for example, TRUE & TRUE evaluates to TRUE. In FALSE & NA, one of the terms is false, so the expression evaluates to FALSE. As does something like FALSE & TRUE.  

NA * 0 could be argued to be because the NA could represent Inf, and Inf * 0 is NaN (Not a Number), rather than NA. However, I suspect that these results are dictated as much by what answer is natural, quick and sensible in C as by mathematical edge cases.

#### 5.3.1 Exercises
1. Sort all missing values to the start:

```r
arrange(flights, desc(is.na(dep_time)))
```

```
## # A tibble: 336,776 × 19
##     year month   day dep_time sched_dep_time dep_delay arr_time
##    <int> <int> <int>    <int>          <int>     <dbl>    <int>
## 1   2013     1     1       NA           1630        NA       NA
## 2   2013     1     1       NA           1935        NA       NA
## 3   2013     1     1       NA           1500        NA       NA
## 4   2013     1     1       NA            600        NA       NA
## 5   2013     1     2       NA           1540        NA       NA
## 6   2013     1     2       NA           1620        NA       NA
## 7   2013     1     2       NA           1355        NA       NA
## 8   2013     1     2       NA           1420        NA       NA
## 9   2013     1     2       NA           1321        NA       NA
## 10  2013     1     2       NA           1545        NA       NA
## # ... with 336,766 more rows, and 12 more variables: sched_arr_time <int>,
## #   arr_delay <dbl>, carrier <chr>, flight <int>, tailnum <chr>,
## #   origin <chr>, dest <chr>, air_time <dbl>, distance <dbl>, hour <dbl>,
## #   minute <dbl>, time_hour <dttm>
```

2. Sort flights to find most delayed flights and find the flights that left earliest

```r
arrange(flights, dep_delay)
```

```
## # A tibble: 336,776 × 19
##     year month   day dep_time sched_dep_time dep_delay arr_time
##    <int> <int> <int>    <int>          <int>     <dbl>    <int>
## 1   2013    12     7     2040           2123       -43       40
## 2   2013     2     3     2022           2055       -33     2240
## 3   2013    11    10     1408           1440       -32     1549
## 4   2013     1    11     1900           1930       -30     2233
## 5   2013     1    29     1703           1730       -27     1947
## 6   2013     8     9      729            755       -26     1002
## 7   2013    10    23     1907           1932       -25     2143
## 8   2013     3    30     2030           2055       -25     2213
## 9   2013     3     2     1431           1455       -24     1601
## 10  2013     5     5      934            958       -24     1225
## # ... with 336,766 more rows, and 12 more variables: sched_arr_time <int>,
## #   arr_delay <dbl>, carrier <chr>, flight <int>, tailnum <chr>,
## #   origin <chr>, dest <chr>, air_time <dbl>, distance <dbl>, hour <dbl>,
## #   minute <dbl>, time_hour <dttm>
```


```r
arrange(flights, desc(dep_delay))
```

```
## # A tibble: 336,776 × 19
##     year month   day dep_time sched_dep_time dep_delay arr_time
##    <int> <int> <int>    <int>          <int>     <dbl>    <int>
## 1   2013     1     9      641            900      1301     1242
## 2   2013     6    15     1432           1935      1137     1607
## 3   2013     1    10     1121           1635      1126     1239
## 4   2013     9    20     1139           1845      1014     1457
## 5   2013     7    22      845           1600      1005     1044
## 6   2013     4    10     1100           1900       960     1342
## 7   2013     3    17     2321            810       911      135
## 8   2013     6    27      959           1900       899     1236
## 9   2013     7    22     2257            759       898      121
## 10  2013    12     5      756           1700       896     1058
## # ... with 336,766 more rows, and 12 more variables: sched_arr_time <int>,
## #   arr_delay <dbl>, carrier <chr>, flight <int>, tailnum <chr>,
## #   origin <chr>, dest <chr>, air_time <dbl>, distance <dbl>, hour <dbl>,
## #   minute <dbl>, time_hour <dttm>
```

3. Sort flights to find the fastest flights

```r
arrange(flights, distance, air_time)
```

```
## # A tibble: 336,776 × 19
##     year month   day dep_time sched_dep_time dep_delay arr_time
##    <int> <int> <int>    <int>          <int>     <dbl>    <int>
## 1   2013     7    27       NA            106        NA       NA
## 2   2013     2     3     2153           2129        24     2247
## 3   2013     2    12     2123           2130        -7     2211
## 4   2013     1     6     2125           2129        -4     2224
## 5   2013     1    23     2128           2129        -1     2221
## 6   2013     2    10     2127           2129        -2     2209
## 7   2013     2     1     2128           2129        -1     2216
## 8   2013     3    30     1942           1950        -8     2026
## 9   2013     1     7     2124           2129        -5     2212
## 10  2013     1    14     2128           2129        -1     2215
## # ... with 336,766 more rows, and 12 more variables: sched_arr_time <int>,
## #   arr_delay <dbl>, carrier <chr>, flight <int>, tailnum <chr>,
## #   origin <chr>, dest <chr>, air_time <dbl>, distance <dbl>, hour <dbl>,
## #   minute <dbl>, time_hour <dttm>
```

4.which flights travelled longest?

```r
arrange(flights, desc(distance, air_time))
```

```
## # A tibble: 336,776 × 19
##     year month   day dep_time sched_dep_time dep_delay arr_time
##    <int> <int> <int>    <int>          <int>     <dbl>    <int>
## 1   2013     1     1      857            900        -3     1516
## 2   2013     1     2      909            900         9     1525
## 3   2013     1     3      914            900        14     1504
## 4   2013     1     4      900            900         0     1516
## 5   2013     1     5      858            900        -2     1519
## 6   2013     1     6     1019            900        79     1558
## 7   2013     1     7     1042            900       102     1620
## 8   2013     1     8      901            900         1     1504
## 9   2013     1     9      641            900      1301     1242
## 10  2013     1    10      859            900        -1     1449
## # ... with 336,766 more rows, and 12 more variables: sched_arr_time <int>,
## #   arr_delay <dbl>, carrier <chr>, flight <int>, tailnum <chr>,
## #   origin <chr>, dest <chr>, air_time <dbl>, distance <dbl>, hour <dbl>,
## #   minute <dbl>, time_hour <dttm>
```
…
2. When you repeat a variable twice in the select() function you just get the variable selected once

3. one_of() allows you to select a variable in a character vector. This means you can pull out the data for all the variables in the vector.

```r
vars <- c("year", "month", "day", "dep_delay", "arr_delay")
select(flights, one_of(vars))
```

```
## # A tibble: 336,776 × 5
##     year month   day dep_delay arr_delay
##    <int> <int> <int>     <dbl>     <dbl>
## 1   2013     1     1         2        11
## 2   2013     1     1         4        20
## 3   2013     1     1         2        33
## 4   2013     1     1        -1       -18
## 5   2013     1     1        -6       -25
## 6   2013     1     1        -4        12
## 7   2013     1     1        -5        19
## 8   2013     1     1        -3       -14
## 9   2013     1     1        -3        -8
## 10  2013     1     1        -2         8
## # ... with 336,766 more rows
```
4. select(flights, contains("TIME")) selects all the columns that have time in the header.It says the default is case sensitive.

#### 5.5.2 Exercises

1. Currently dep_time and sched_dep_time are convenient to look at, but hard to compute with because they’re not really continuous numbers. Convert them to a more convenient representation of number of minutes since midnight.

```r
mutate(flights,
       dep_time_mins = dep_time %/% 100 * 60 + dep_time %% 100,
       sched_dep_time_mins = sched_dep_time %/% 100 * 60 + sched_dep_time %% 100) %>%
  select(dep_time, dep_time_mins, sched_dep_time, sched_dep_time_mins)
```

```
## # A tibble: 336,776 × 4
##    dep_time dep_time_mins sched_dep_time sched_dep_time_mins
##       <int>         <dbl>          <int>               <dbl>
## 1       517           317            515                 315
## 2       533           333            529                 329
## 3       542           342            540                 340
## 4       544           344            545                 345
## 5       554           354            600                 360
## 6       554           354            558                 358
## 7       555           355            600                 360
## 8       557           357            600                 360
## 9       557           357            600                 360
## 10      558           358            600                 360
## # ... with 336,766 more rows
```

2. The air time does not work out to the difference between the arrival and departure times.

3. Departure delay is the difference between the scheduled departure time and the actual departure time.

4. Find the 10 most delayed flights using a ranking function

```r
mutate(flights, min_rank(dep_delay))
```

```
## # A tibble: 336,776 × 20
##     year month   day dep_time sched_dep_time dep_delay arr_time
##    <int> <int> <int>    <int>          <int>     <dbl>    <int>
## 1   2013     1     1      517            515         2      830
## 2   2013     1     1      533            529         4      850
## 3   2013     1     1      542            540         2      923
## 4   2013     1     1      544            545        -1     1004
## 5   2013     1     1      554            600        -6      812
## 6   2013     1     1      554            558        -4      740
## 7   2013     1     1      555            600        -5      913
## 8   2013     1     1      557            600        -3      709
## 9   2013     1     1      557            600        -3      838
## 10  2013     1     1      558            600        -2      753
## # ... with 336,766 more rows, and 13 more variables: sched_arr_time <int>,
## #   arr_delay <dbl>, carrier <chr>, flight <int>, tailnum <chr>,
## #   origin <chr>, dest <chr>, air_time <dbl>, distance <dbl>, hour <dbl>,
## #   minute <dbl>, time_hour <dttm>, `min_rank(dep_delay)` <int>
```
…
