…
1.2. A flight is always 10 minutes late.


```r
delay_char %>% filter(ten_always == 1)
```

```
## # A tibble: 1,088 × 10
##    flight tailnum     n fifteen_early fifteen_late ten_always thirty_early
##     <int>   <chr> <int>         <dbl>        <dbl>      <dbl>        <dbl>
## 1       1  N524JB     1             0            0          1            0
## 2       1  N712JB     1             0            0          1            0
## 3       3  N260WN     1             0            0          1            0
## 4       3  N262WN     1             0            0          1            0
## 5       3  N265WN     1             0            0          1            0
## 6       3  N38454     1             0            0          1            0
## 7       3  N521JB     1             0            0          1            0
## 8       4  N646JB     1             0            0          1            0
## 9       8  N599JB     1             0            0          1            0
## 10     10  N37293     1             0            0          1            0
## # ... with 1,078 more rows, and 3 more variables: thirty_late <dbl>,
## #   percentage_on_time <dbl>, twohours <dbl>
```
…
Which is more important: arrival delay or departure delay?
_I think arrival dely because they are asking about the timing of the flights arriving_

2. Come up with another approach that will give you the same output as **not_cancelled %>% count(dest)** and **not_cancelled %>% count(tailnum, wt = distance)** (without using count()).

```r
not_cancelled <-  flights %>% filter(!is.na(dep_delay), !is.na(arr_delay))
not_cancelled %>%  group_by(dest) %>%  summarise(n = n())
```

```
## # A tibble: 104 × 2
##     dest     n
##    <chr> <int>
## 1    ABQ   254
## 2    ACK   264
## 3    ALB   418
## 4    ANC     8
## 5    ATL 16837
## 6    AUS  2411
## 7    AVL   261
## 8    BDL   412
## 9    BGR   358
## 10   BHM   269
## # ... with 94 more rows
```

3.Our definition of cancelled flights **(is.na(dep_delay) | is.na(arr_delay) )** is slightly suboptimal. Why? Which is the most important column?
_This is suboptimal because it searches both columns but if the flight did not depart then it was probably canceled so we probably only need (is.na(dep_delay))._

```r
flights %>% filter(is.na(dep_delay)|is.na(arr_delay))
```

```
## # A tibble: 9,430 × 19
##     year month   day dep_time sched_dep_time dep_delay arr_time
##    <int> <int> <int>    <int>          <int>     <dbl>    <int>
## 1   2013     1     1     1525           1530        -5     1934
## 2   2013     1     1     1528           1459        29     2002
## 3   2013     1     1     1740           1745        -5     2158
## 4   2013     1     1     1807           1738        29     2251
## 5   2013     1     1     1939           1840        59       29
## 6   2013     1     1     1952           1930        22     2358
## 7   2013     1     1     2016           1930        46       NA
## 8   2013     1     1       NA           1630        NA       NA
## 9   2013     1     1       NA           1935        NA       NA
## 10  2013     1     1       NA           1500        NA       NA
## # ... with 9,420 more rows, and 12 more variables: sched_arr_time <int>,
## #   arr_delay <dbl>, carrier <chr>, flight <int>, tailnum <chr>,
## #   origin <chr>, dest <chr>, air_time <dbl>, distance <dbl>, hour <dbl>,
## #   minute <dbl>, time_hour <dttm>
```


```r
flights %>% filter(is.na(dep_delay))
```

```
## # A tibble: 8,255 × 19
##     year month   day dep_time sched_dep_time dep_delay arr_time
##    <int> <int> <int>    <int>          <int>     <dbl>    <int>
## 1   2013     1     1       NA           1630        NA       NA
## 2   2013     1     1       NA           1935        NA       NA
## 3   2013     1     1       NA           1500        NA       NA
## 4   2013     1     1       NA            600        NA       NA
## 5   2013     1     2       NA           1540        NA       NA
## 6   2013     1     2       NA           1620        NA       NA
## 7   2013     1     2       NA           1355        NA       NA
## 8   2013     1     2       NA           1420        NA       NA
## 9   2013     1     2       NA           1321        NA       NA
## 10  2013     1     2       NA           1545        NA       NA
## # ... with 8,245 more rows, and 12 more variables: sched_arr_time <int>,
## #   arr_delay <dbl>, carrier <chr>, flight <int>, tailnum <chr>,
## #   origin <chr>, dest <chr>, air_time <dbl>, distance <dbl>, hour <dbl>,
## #   minute <dbl>, time_hour <dttm>
```
…
